labos/l3/c5/data/sub/sub 3kohm.csv

Record Length,2500,Points,-819.999957457E-6,5.03999996,,Record Length,2500,Points,-819.999957457E-6,5.03999996,
Sample Interval,2.0000000E-6,s,-817.999942228E-6,5.03999996,,Sample Interval,2.0000000E-6,s,-817.999942228E-6,5.03999996,
Trigger Point,409.999979764,Samples,-815.999985207E-6,5.03999996,,Trigger Point,409.999979764,Samples,-815.999985207E-6,5.03999996,
,,,-813.999969978E-6,5.03999996,,,,,-813.999969978E-6,5.03999996,
,,,-811.999954749E-6,5.03999996,,,,,-811.999954749E-6,5.03999996,
,,,-809.999939520E-6,5.03999996,,,,,-809.999939520E-6,5.03999996,
Source,CH1,,-807.999982499E-6,5.03999996,,Source,CH2,,-807.999982499E-6,5.03999996,
Vertical Units,Volts,,-805.999967270E-6,5.03999996,,Vertical Units,Volts,,-805.999967270E-6,5.03999996,
Vertical Scale,2.0000000,,-803.999952041E-6,5.03999996,,Vertical Scale,2.0000000,,-803.999952041E-6,5.03999996,
Vertical Offset,0,,-801.999936812E-6,5.03999996,,Vertical Offset,0,,-801.999936812E-6,5.03999996,
Horizontal Units,s,,-799.999979790E-6,5.03999996,,Horizontal Units,s,,-799.999979790E-6,5.03999996,
Horizontal Scale,499.999998738E-6,,-797.999964561E-6,5.03999996,,Horizontal Scale,499.999998738E-6,,-797.999964561E-6,5.03999996,
Pt Fmt,Y,,-795.999949332E-6,4.96000004,,Pt Fmt,Y,,-795.999949332E-6,5.03999996,
Yzero,-40.00000000E-3,,-793.999934103E-6,5.03999996,,Yzero,-40.00000000E-3,,-793.999934103E-6,5.03999996,
Probe Atten,1.000000,,-791.999977082E-6,5.03999996,,Probe Atten,1.000000,,-791.999977082E-6,5.03999996,
,,,-789.999961853E-6,5.03999996,,,,,-789.999961853E-6,5.03999996,
Note,TBS 1052B-EDU - 17:28:09   15/4/2025,,-787.999946624E-6,5.03999996,,Note,TBS 1052B-EDU - 17:28:09   15/4/2025,,-787.999946624E-6,5.03999996,
,,,-785.999931395E-6,5.03999996,,,,,-785.999931395E-6,5.03999996,
,,,-783.999974374E-6,5.03999996,,,,,-783.999974374E-6,5.03999996,
,,,-781.999959145E-6,5.03999996,,,,,-781.999959145E-6,5.03999996,
,,,-779.999943916E-6,5.03999996,,,,,-779.999943916E-6,5.03999996,
,,,-777.999928687E-6,4.96000004,,,,,-777.999928687E-6,5.03999996,
,,,-775.999971665E-6,5.03999996,,,,,-775.999971665E-6,5.03999996,
,,,-773.999956436E-6,5.03999996,,,,,-773.999956436E-6,5.03999996,
,,,-771.999941207E-6,4.96000004,,,,,-771.999941207E-6,5.03999996,
,,,-769.999984186E-6,5.03999996,,,,,-769.999984186E-6,5.03999996,
,,,-767.999968957E-6,5.03999996,,,,,-767.999968957E-6,5.03999996,
,,,-765.999953728E-6,5.03999996,,,,,-765.999953728E-6,5.03999996,
,,,-763.999938499E-6,5.03999996,,,,,-763.999938499E-6,5.03999996,
,,,-761.999981478E-6,5.03999996,,,,,-761.999981478E-6,5.03999996,
,,,-759.999966249E-6,4.96000004,,,,,-759.999966249E-6,5.03999996,
,,,-757.999951020E-6,5.03999996,,,,,-757.999951020E-6,5.03999996,
,,,-755.999935791E-6,4.96000004,,,,,-755.999935791E-6,5.03999996,
,,,-753.999978770E-6,4.96000004,,,,,-753.999978770E-6,5.03999996,
,,,-751.999963541E-6,5.03999996,,,,,-751.999963541E-6,5.03999996,
,,,-749.999948312E-6,4.96000004,,,,,-749.999948312E-6,5.03999996,
,,,-747.999933083E-6,5.03999996,,,,,-747.999933083E-6,5.03999996,
,,,-745.999976061E-6,5.03999996,,,,,-745.999976061E-6,5.03999996,
,,,-743.999960832E-6,5.03999996,,,,,-743.999960832E-6,5.03999996,
,,,-741.999945603E-6,5.03999996,,,,,-741.999945603E-6,5.03999996,
,,,-739.999930374E-6,5.03999996,,,,,-739.999930374E-6,5.03999996,
,,,-737.999973353E-6,5.03999996,,,,,-737.999973353E-6,5.03999996,
,,,-735.999958124E-6,5.03999996,,,,,-735.999958124E-6,5.03999996,
,,,-733.999942895E-6,5.03999996,,,,,-733.999942895E-6,5.03999996,
,,,-731.999985874E-6,4.96000004,,,,,-731.999985874E-6,5.03999996,
,,,-729.999970645E-6,4.96000004,,,,,-729.999970645E-6,5.03999996,
,,,-727.999955416E-6,5.03999996,,,,,-727.999955416E-6,5.03999996,
,,,-725.999940187E-6,5.03999996,,,,,-725.999940187E-6,5.03999996,
,,,-723.999983165E-6,5.03999996,,,,,-723.999983165E-6,5.03999996,
,,,-721.999967936E-6,5.03999996,,,,,-721.999967936E-6,5.03999996,
,,,-719.999952707E-6,5.03999996,,,,,-719.999952707E-6,5.03999996,
,,,-717.999937478E-6,5.03999996,,,,,-717.999937478E-6,5.03999996,
,,,-715.999980457E-6,5.03999996,,,,,-715.999980457E-6,5.03999996,
,,,-713.999965228E-6,5.03999996,,,,,-713.999965228E-6,5.03999996,
,,,-711.999949999E-6,5.03999996,,,,,-711.999949999E-6,5.03999996,
,,,-709.999934770E-6,5.03999996,,,,,-709.999934770E-6,5.03999996,
,,,-707.999977749E-6,5.03999996,,,,,-707.999977749E-6,5.03999996,
,,,-705.999962520E-6,5.03999996,,,,,-705.999962520E-6,5.03999996,
,,,-703.999947291E-6,5.03999996,,,,,-703.999947291E-6,5.03999996,
,,,-701.999932062E-6,4.96000004,,,,,-701.999932062E-6,5.03999996,
,,,-699.999975041E-6,5.03999996,,,,,-699.999975041E-6,5.03999996,
,,,-697.999959812E-6,5.03999996,,,,,-697.999959812E-6,5.03999996,
,,,-695.999944583E-6,4.96000004,,,,,-695.999944583E-6,5.03999996,
,,,-693.999929354E-6,5.03999996,,,,,-693.999929354E-6,5.03999996,
,,,-691.999972332E-6,5.03999996,,,,,-691.999972332E-6,5.03999996,
,,,-689.999957103E-6,5.03999996,,,,,-689.999957103E-6,5.03999996,
,,,-687.999941874E-6,4.96000004,,,,,-687.999941874E-6,5.03999996,
,,,-685.999984853E-6,5.03999996,,,,,-685.999984853E-6,5.03999996,
,,,-683.999969624E-6,5.03999996,,,,,-683.999969624E-6,5.03999996,
,,,-681.999954395E-6,5.03999996,,,,,-681.999954395E-6,4.96000004,
,,,-679.999939166E-6,5.03999996,,,,,-679.999939166E-6,5.03999996,
,,,-677.999982145E-6,5.03999996,,,,,-677.999982145E-6,5.03999996,
,,,-675.999966916E-6,5.03999996,,,,,-675.999966916E-6,5.03999996,
,,,-673.999951687E-6,5.03999996,,,,,-673.999951687E-6,5.03999996,
,,,-671.999936458E-6,5.03999996,,,,,-671.999936458E-6,5.03999996,
,,,-669.999979436E-6,5.03999996,,,,,-669.999979436E-6,5.03999996,
,,,-667.999964207E-6,5.03999996,,,,,-667.999964207E-6,5.03999996,
,,,-665.999948978E-6,5.03999996,,,,,-665.999948978E-6,5.03999996,
,,,-663.999933749E-6,5.03999996,,,,,-663.999933749E-6,5.03999996,
,,,-661.999976728E-6,5.03999996,,,,,-661.999976728E-6,5.03999996,
,,,-659.999961499E-6,5.03999996,,,,,-659.999961499E-6,5.03999996,
,,,-657.999946270E-6,5.03999996,,,,,-657.999946270E-6,5.03999996,
,,,-655.999931041E-6,5.03999996,,,,,-655.999931041E-6,5.03999996,
,,,-653.999974020E-6,5.03999996,,,,,-653.999974020E-6,5.03999996,
,,,-651.999958791E-6,4.96000004,,,,,-651.999958791E-6,5.03999996,
,,,-649.999943562E-6,5.03999996,,,,,-649.999943562E-6,5.03999996,
,,,-647.999986541E-6,5.03999996,,,,,-647.999986541E-6,5.03999996,
,,,-645.999971312E-6,5.03999996,,,,,-645.999971312E-6,4.96000004,
,,,-643.999956083E-6,5.03999996,,,,,-643.999956083E-6,5.03999996,
,,,-641.999940854E-6,4.96000004,,,,,-641.999940854E-6,5.03999996,
,,,-639.999983832E-6,5.03999996,,,,,-639.999983832E-6,5.03999996,
,,,-637.999968603E-6,5.03999996,,,,,-637.999968603E-6,5.03999996,
,,,-635.999953374E-6,5.03999996,,,,,-635.999953374E-6,5.03999996,
,,,-633.999938145E-6,5.03999996,,,,,-633.999938145E-6,5.03999996,
,,,-631.999981124E-6,4.96000004,,,,,-631.999981124E-6,5.03999996,
,,,-629.999965895E-6,5.03999996,,,,,-629.999965895E-6,5.03999996,
,,,-627.999950666E-6,5.03999996,,,,,-627.999950666E-6,5.03999996,
,,,-625.999935437E-6,4.96000004,,,,,-625.999935437E-6,5.03999996,
,,,-623.999978416E-6,4.96000004,,,,,-623.999978416E-6,5.03999996,
,,,-621.999963187E-6,5.03999996,,,,,-621.999963187E-6,5.03999996,
,,,-619.999947958E-6,5.03999996,,,,,-619.999947958E-6,5.03999996,
,,,-617.999932729E-6,5.03999996,,,,,-617.999932729E-6,5.03999996,
,,,-615.999975707E-6,5.03999996,,,,,-615.999975707E-6,5.03999996,
,,,-613.999960478E-6,5.03999996,,,,,-613.999960478E-6,5.03999996,
,,,-611.999945249E-6,5.03999996,,,,,-611.999945249E-6,5.03999996,
,,,-609.999930020E-6,5.03999996,,,,,-609.999930020E-6,5.03999996,
,,,-607.999972999E-6,5.03999996,,,,,-607.999972999E-6,5.03999996,
,,,-605.999957770E-6,5.03999996,,,,,-605.999957770E-6,5.03999996,
,,,-603.999942541E-6,5.03999996,,,,,-603.999942541E-6,5.03999996,
,,,-601.999985520E-6,5.03999996,,,,,-601.999985520E-6,5.03999996,
,,,-599.999970291E-6,5.03999996,,,,,-599.999970291E-6,5.03999996,
,,,-597.999955062E-6,5.03999996,,,,,-597.999955062E-6,5.03999996,
,,,-595.999939833E-6,5.03999996,,,,,-595.999939833E-6,5.03999996,
,,,-593.999982812E-6,5.03999996,,,,,-593.999982812E-6,5.03999996,
,,,-591.999967583E-6,5.03999996,,,,,-591.999967583E-6,5.03999996,
,,,-589.999952354E-6,4.96000004,,,,,-589.999952354E-6,5.03999996,
,,,-587.999937125E-6,5.03999996,,,,,-587.999937125E-6,5.03999996,
,,,-585.999980103E-6,5.03999996,,,,,-585.999980103E-6,5.03999996,
,,,-583.999964874E-6,5.03999996,,,,,-583.999964874E-6,5.03999996,
,,,-581.999949645E-6,5.03999996,,,,,-581.999949645E-6,5.03999996,
,,,-579.999934416E-6,5.03999996,,,,,-579.999934416E-6,5.03999996,
,,,-577.999977395E-6,4.96000004,,,,,-577.999977395E-6,5.03999996,
,,,-575.999962166E-6,5.03999996,,,,,-575.999962166E-6,5.03999996,
,,,-573.999946937E-6,5.03999996,,,,,-573.999946937E-6,5.03999996,
,,,-571.999931708E-6,5.03999996,,,,,-571.999931708E-6,5.03999996,
,,,-569.999974687E-6,5.03999996,,,,,-569.999974687E-6,5.03999996,
,,,-567.999959458E-6,5.03999996,,,,,-567.999959458E-6,5.03999996,
,,,-565.999944229E-6,5.03999996,,,,,-565.999944229E-6,5.03999996,
,,,-563.999987207E-6,5.03999996,,,,,-563.999987207E-6,5.03999996,
,,,-561.999971978E-6,5.03999996,,,,,-561.999971978E-6,5.03999996,
,,,-559.999956749E-6,4.96000004,,,,,-559.999956749E-6,5.03999996,
,,,-557.999941520E-6,5.03999996,,,,,-557.999941520E-6,5.03999996,
,,,-555.999984499E-6,4.96000004,,,,,-555.999984499E-6,5.03999996,
,,,-553.999969270E-6,5.03999996,,,,,-553.999969270E-6,5.03999996,
,,,-551.999954041E-6,5.03999996,,,,,-551.999954041E-6,5.03999996,
,,,-549.999938812E-6,5.03999996,,,,,-549.999938812E-6,5.03999996,
,,,-547.999981791E-6,5.03999996,,,,,-547.999981791E-6,5.03999996,
,,,-545.999966562E-6,5.03999996,,,,,-545.999966562E-6,5.03999996,
,,,-543.999951333E-6,5.03999996,,,,,-543.999951333E-6,5.03999996,
,,,-541.999936104E-6,5.03999996,,,,,-541.999936104E-6,5.03999996,
,,,-539.999979082E-6,5.03999996,,,,,-539.999979082E-6,5.03999996,
,,,-537.999963854E-6,5.03999996,,,,,-537.999963854E-6,5.03999996,
,,,-535.999948625E-6,5.03999996,,,,,-535.999948625E-6,5.03999996,
,,,-533.999933396E-6,5.03999996,,,,,-533.999933396E-6,5.03999996,
,,,-531.999976374E-6,5.03999996,,,,,-531.999976374E-6,5.03999996,
,,,-529.999961145E-6,5.03999996,,,,,-529.999961145E-6,5.03999996,
,,,-527.999945916E-6,5.03999996,,,,,-527.999945916E-6,4.96000004,
,,,-525.999930687E-6,4.96000004,,,,,-525.999930687E-6,5.03999996,
,,,-523.999973666E-6,5.03999996,,,,,-523.999973666E-6,5.03999996,
,,,-521.999958437E-6,5.03999996,,,,,-521.999958437E-6,5.03999996,
,,,-519.999943208E-6,4.96000004,,,,,-519.999943208E-6,5.03999996,
,,,-517.999986187E-6,5.03999996,,,,,-517.999986187E-6,5.03999996,
,,,-515.999970958E-6,5.03999996,,,,,-515.999970958E-6,5.03999996,
,,,-513.999955729E-6,5.03999996,,,,,-513.999955729E-6,5.03999996,
,,,-511.999940500E-6,5.03999996,,,,,-511.999940500E-6,5.03999996,
,,,-509.999983478E-6,5.03999996,,,,,-509.999983478E-6,5.03999996,
,,,-507.999968249E-6,5.03999996,,,,,-507.999968249E-6,5.03999996,
,,,-505.999953020E-6,5.03999996,,,,,-505.999953020E-6,5.03999996,
,,,-503.999937791E-6,5.03999996,,,,,-503.999937791E-6,5.03999996,
,,,-501.999980770E-6,4.96000004,,,,,-501.999980770E-6,5.03999996,
,,,-499.999965541E-6,5.03999996,,,,,-499.999965541E-6,5.03999996,
,,,-497.999950312E-6,5.03999996,,,,,-497.999950312E-6,4.55999994,
,,,-495.999935083E-6,5.03999996,,,,,-495.999935083E-6,4.96000004,
,,,-493.999978062E-6,4.96000004,,,,,-493.999978062E-6,4.96000004,
,,,-491.999962833E-6,4.96000004,,,,,-491.999962833E-6,4.88000011,
,,,-489.999947604E-6,4.96000004,,,,,-489.999947604E-6,4.88000011,
,,,-487.999961479E-6,4.96000004,,,,,-487.999961479E-6,4.79999971,
,,,-485.999946250E-6,4.96000004,,,,,-485.999946250E-6,4.79999971,
,,,-483.999960124E-6,4.96000004,,,,,-483.999960124E-6,4.79999971,
,,,-481.999944896E-6,4.88000011,,,,,-481.999944896E-6,4.71999979,
,,,-479.999958770E-6,4.96000004,,,,,-479.999958770E-6,4.71999979,
,,,-477.999972645E-6,4.88000011,,,,,-477.999972645E-6,4.55999994,
,,,-475.999957416E-6,4.88000011,,,,,-475.999957416E-6,4.55999994,
,,,-473.999971291E-6,4.88000011,,,,,-473.999971291E-6,4.48000002,
,,,-471.999956062E-6,4.88000011,,,,,-471.999956062E-6,4.48000002,
,,,-469.999969937E-6,4.79999971,,,,,-469.999969937E-6,4.40000010,
,,,-467.999954708E-6,4.79999971,,,,,-467.999954708E-6,4.40000010,
,,,-465.999968583E-6,4.71999979,,,,,-465.999968583E-6,4.31999969,
,,,-463.999953354E-6,4.71999979,,,,,-463.999953354E-6,4.23999977,
,,,-461.999967229E-6,4.63999987,,,,,-461.999967229E-6,4.15999985,
,,,-459.999952000E-6,4.63999987,,,,,-459.999952000E-6,4.15999985,
,,,-457.999965874E-6,4.55999994,,,,,-457.999965874E-6,4.07999992,
,,,-455.999950645E-6,4.55999994,,,,,-455.999950645E-6,4.00000000,
,,,-453.999964520E-6,4.55999994,,,,,-453.999964520E-6,3.91999984,
,,,-451.999949291E-6,4.48000002,,,,,-451.999949291E-6,3.83999991,
,,,-449.999963166E-6,4.40000010,,,,,-449.999963166E-6,3.83999991,
,,,-447.999947937E-6,4.40000010,,,,,-447.999947937E-6,3.75999999,
,,,-445.999961812E-6,4.31999969,,,,,-445.999961812E-6,3.67999983,
,,,-443.999946583E-6,4.23999977,,,,,-443.999946583E-6,3.59999990,
,,,-441.999960458E-6,4.23999977,,,,,-441.999960458E-6,3.51999998,
,,,-439.999945229E-6,4.15999985,,,,,-439.999945229E-6,3.43999982,
,,,-437.999959104E-6,4.07999992,,,,,-437.999959104E-6,3.35999990,
,,,-435.999943875E-6,4.07999992,,,,,-435.999943875E-6,3.35999990,
,,,-433.999957750E-6,4.00000000,,,,,-433.999957750E-6,3.27999997,
,,,-431.999971624E-6,4.00000000,,,,,-431.999971624E-6,3.19999981,
,,,-429.999956395E-6,3.91999984,,,,,-429.999956395E-6,3.03999996,
,,,-427.999970270E-6,3.83999991,,,,,-427.999970270E-6,3.03999996,
,,,-425.999955041E-6,3.83999991,,,,,-425.999955041E-6,2.96000004,
,,,-423.999968916E-6,3.75999999,,,,,-423.999968916E-6,2.79999995,
,,,-421.999953687E-6,3.67999983,,,,,-421.999953687E-6,2.79999995,
,,,-419.999967562E-6,3.59999990,,,,,-419.999967562E-6,2.72000003,
,,,-417.999952333E-6,3.51999998,,,,,-417.999952333E-6,2.6399999,
,,,-415.999966208E-6,3.51999998,,,,,-415.999966208E-6,2.5599999,
,,,-413.999950979E-6,3.43999982,,,,,-413.999950979E-6,2.4800000,
,,,-411.999964854E-6,3.35999990,,,,,-411.999964854E-6,2.3999999,
,,,-409.999949625E-6,3.27999997,,,,,-409.999949625E-6,2.3199999,
,,,-407.999963500E-6,3.27999997,,,,,-407.999963500E-6,2.2400000,
,,,-405.999948271E-6,3.19999981,,,,,-405.999948271E-6,2.1599998,
,,,-403.999962145E-6,3.11999989,,,,,-403.999962145E-6,2.0799999,
,,,-401.99994692E-6,2.96000004,,,,,-401.99994692E-6,2.0000000,
,,,-399.99996079E-6,2.96000004,,,,,-399.99996079E-6,1.9200000,
,,,-397.99994556E-6,2.87999988,,,,,-397.99994556E-6,1.8399999,
,,,-395.99995944E-6,2.79999995,,,,,-395.99995944E-6,1.7600000,
,,,-393.99994421E-6,2.72000003,,,,,-393.99994421E-6,1.5999999,
,,,-391.99995808E-6,2.6399999,,,,,-391.99995808E-6,1.5999999,
,,,-389.99997196E-6,2.6399999,,,,,-389.99997196E-6,1.5200000,
,,,-387.99995673E-6,2.4800000,,,,,-387.99995673E-6,1.4399999,
,,,-385.99997060E-6,2.3999999,,,,,-385.99997060E-6,1.3600000,
,,,-383.99995537E-6,2.3199999,,,,,-383.99995537E-6,1.2800000,
,,,-381.99996925E-6,2.3199999,,,,,-381.99996925E-6,1.1999999,
,,,-379.99995402E-6,2.1599998,,,,,-379.99995402E-6,1.1200000,
,,,-377.99996790E-6,2.1599998,,,,,-377.99996790E-6,1.0400000,
,,,-375.99995267E-6,2.0799999,,,,,-375.99995267E-6,879.999995232E-3,
,,,-373.99996654E-6,1.9200000,,,,,-373.99996654E-6,879.999995232E-3,
,,,-371.99995131E-6,1.9200000,,,,,-371.99995131E-6,799.999952316E-3,
,,,-369.99996519E-6,1.8399999,,,,,-369.99996519E-6,719.999969006E-3,
,,,-367.99994996E-6,1.7600000,,,,,-367.99994996E-6,560.000002384E-3,
,,,-365.99996383E-6,1.6799999,,,,,-365.99996383E-6,479.999989271E-3,
,,,-363.99994860E-6,1.5999999,,,,,-363.99994860E-6,479.999989271E-3,
,,,-361.99996248E-6,1.5200000,,,,,-361.99996248E-6,319.99999285E-3,
,,,-359.99994725E-6,1.4399999,,,,,-359.99994725E-6,319.99999285E-3,
,,,-357.99996112E-6,1.3600000,,,,,-357.99996112E-6,239.99999464E-3,
,,,-355.99994590E-6,1.2800000,,,,,-355.99994590E-6,79.999998212E-3,
,,,-353.99995977E-6,1.1999999,,,,,-353.99995977E-6,0.0,
,,,-351.99994454E-6,1.1200000,,,,,-351.99994454E-6,-79.999998212E-3,
,,,-349.99995842E-6,1.0400000,,,,,-349.99995842E-6,-159.99999642E-3,
,,,-347.99997229E-6,959.999978542E-3,,,,,-347.99997229E-6,-159.99999642E-3,
,,,-345.99995706E-6,879.999995232E-3,,,,,-345.99995706E-6,-319.99999285E-3,
,,,-343.99997094E-6,799.999952316E-3,,,,,-343.99997094E-6,-319.99999285E-3,
,,,-341.99995571E-6,719.999969006E-3,,,,,-341.99995571E-6,-479.999989271E-3,
,,,-339.99996958E-6,639.999985695E-3,,,,,-339.99996958E-6,-560.000002384E-3,
,,,-337.99995435E-6,560.000002384E-3,,,,,-337.99995435E-6,-560.000002384E-3,
,,,-335.99996823E-6,479.999989271E-3,,,,,-335.99996823E-6,-719.999969006E-3,
,,,-333.99995300E-6,399.99997616E-3,,,,,-333.99995300E-6,-719.999969006E-3,
,,,-331.99996687E-6,319.99999285E-3,,,,,-331.99996687E-6,-879.999995232E-3,
,,,-329.99995165E-6,239.99999464E-3,,,,,-329.99995165E-6,-879.999995232E-3,
,,,-327.99996552E-6,239.99999464E-3,,,,,-327.99996552E-6,-959.999978542E-3,
,,,-325.99995029E-6,79.999998212E-3,,,,,-325.99995029E-6,-1.0400000,
,,,-323.99996417E-6,0.0,,,,,-323.99996417E-6,-1.1200000,
,,,-321.99994894E-6,-79.999998212E-3,,,,,-321.99994894E-6,-1.1200000,
,,,-319.99996281E-6,-159.99999642E-3,,,,,-319.99996281E-6,-1.1999999,
,,,-317.99994758E-6,-159.99999642E-3,,,,,-317.99994758E-6,-1.2800000,
,,,-315.99996146E-6,-319.99999285E-3,,,,,-315.99996146E-6,-1.3600000,
,,,-313.99994623E-6,-399.99997616E-3,,,,,-313.99994623E-6,-1.4399999,
,,,-311.99996010E-6,-399.99997616E-3,,,,,-311.99996010E-6,-1.5200000,
,,,-309.99994488E-6,-479.999989271E-3,,,,,-309.99994488E-6,-1.5200000,
,,,-307.99995875E-6,-560.000002384E-3,,,,,-307.99995875E-6,-1.5999999,
,,,-305.99997262E-6,-639.999985695E-3,,,,,-305.99997262E-6,-1.6799999,
,,,-303.99995740E-6,-719.999969006E-3,,,,,-303.99995740E-6,-1.6799999,
,,,-301.99997127E-6,-799.999952316E-3,,,,,-301.99997127E-6,-1.7600000,
,,,-299.99995604E-6,-879.999995232E-3,,,,,-299.99995604E-6,-1.7600000,
,,,-297.99996992E-6,-879.999995232E-3,,,,,-297.99996992E-6,-1.8399999,
,,,-295.99995469E-6,-959.999978542E-3,,,,,-295.99995469E-6,-1.9200000,
,,,-293.99996856E-6,-1.0400000,,,,,-293.99996856E-6,-2.0000000,
,,,-291.99995333E-6,-1.0400000,,,,,-291.99995333E-6,-2.0000000,
,,,-289.99996721E-6,-1.1200000,,,,,-289.99996721E-6,-2.0000000,
,,,-287.99995198E-6,-1.1999999,,,,,-287.99995198E-6,-2.0799999,
,,,-285.99996585E-6,-1.2800000,,,,,-285.99996585E-6,-2.1599998,
,,,-283.99995063E-6,-1.2800000,,,,,-283.99995063E-6,-2.2400000,
,,,-281.99996450E-6,-1.3600000,,,,,-281.99996450E-6,-2.2400000,
,,,-279.99994927E-6,-1.4399999,,,,,-279.99994927E-6,-2.3199999,
,,,-277.99996315E-6,-1.5200000,,,,,-277.99996315E-6,-2.3199999,
,,,-275.99994792E-6,-1.5200000,,,,,-275.99994792E-6,-2.3999999,
,,,-273.99996179E-6,-1.5999999,,,,,-273.99996179E-6,-2.3999999,
,,,-271.99994656E-6,-1.6799999,,,,,-271.99994656E-6,-2.4800000,
,,,-269.99996044E-6,-1.6799999,,,,,-269.99996044E-6,-2.4800000,
,,,-267.99994521E-6,-1.7600000,,,,,-267.99994521E-6,-2.5599999,
,,,-265.99995908E-6,-1.8399999,,,,,-265.99995908E-6,-2.5599999,
,,,-263.99997296E-6,-1.9200000,,,,,-263.99997296E-6,-2.5599999,
,,,-261.99995773E-6,-1.9200000,,,,,-261.99995773E-6,-2.6399999,
,,,-259.99997160E-6,-2.0000000,,,,,-259.99997160E-6,-2.6399999,
,,,-257.99995637E-6,-2.0000000,,,,,-257.99995637E-6,-2.72000003,
,,,-255.99997025E-6,-2.0799999,,,,,-255.99997025E-6,-2.6399999,
,,,-253.99995502E-6,-2.0799999,,,,,-253.99995502E-6,-2.72000003,
,,,-251.99996890E-6,-2.1599998,,,,,-251.99996890E-6,-2.72000003,
,,,-249.99995367E-6,-2.1599998,,,,,-249.99995367E-6,-2.72000003,
,,,-247.99996754E-6,-2.2400000,,,,,-247.99996754E-6,-2.79999995,
,,,-245.99995231E-6,-2.2400000,,,,,-245.99995231E-6,-2.79999995,
,,,-243.99996619E-6,-2.3199999,,,,,-243.99996619E-6,-2.79999995,
,,,-241.99996551E-6,-2.3199999,,,,,-241.99996551E-6,-2.87999988,
,,,-239.99996483E-6,-2.3999999,,,,,-239.99996483E-6,-2.87999988,
,,,-237.99996416E-6,-2.3999999,,,,,-237.99996416E-6,-2.87999988,
